{
  "success": true,
  "data": {
    "currentPage": 2,
    "totalPage": 3,
    "totalCount": 13,
    "list": [
      {
        "id": 6,
        "firstName": "wang",
        "lastName": "linder"
      },
      {
        "id": 7,
        "firstName": "mark",
        "lastName": "lemon"
      },
      {
        "id": 8,
        "firstName": "demon",
        "lastName": "happily"
      },
      {
        "id": 9,
        "firstName": "carl",
        "lastName": "miso"
      },
      {
        "id": 10,
        "firstName": "liu",
        "lastName": "tian"
      }
    ]
  },
  "message": "成功"
}
