{
  "success": true,
  "data": {
    "currentPage": 3,
    "totalPage": 3,
    "totalCount": 13,
    "list": [
      {
        "id": 11,
        "firstName": "wang",
        "lastName": "ming"
      },
      {
        "id": 12,
        "firstName": "china",
        "lastName": "i love you"
      },
      {
        "id": 13,
        "firstName": "taiwan",
        "lastName": "china"
      }
    ]
  },
  "message": "成功"
}
